{
  "url": "http://localhost:3000/api",
  "urll": "https://anypoint.mulesoft.com/mocking/api/v1/sources/exchange/assets/f1e97bc6-315a-4490-82a7-23abe036327a.anypoint-platform/amc-application-manager/4.0.4/m/"
}
